…
``` r
tibby1 <- usa_starbucks %>% group_by(City) %>% summarise_at(vars(Longitude, Latitude), mean)
tibby2 <- usa_starbucks %>% group_by(StateProvince) %>% count(City) %>% slice_max(n = 1, n) %>%  distinct(StateProvince, .keep_all = TRUE)
starbucksTibble <- left_join(tibby2, tibby1, by = 'City')
starbucksTibble <- relocate(starbucksTibble, n, .after = Latitude)
starbucksTibble <- rename(starbucksTibble, c(StarbucksCapital = City, AverageLongitude = Longitude, AverageLatitude = Latitude, TotalStarbucksLocations = n))
starbucksTibble
```

    ## # A tibble: 51 x 5
    ## # Groups:   StateProvince [51]
    ##    StateProvince StarbucksCapital AverageLongitude AverageLatitude TotalStarbu~1
    ##    <chr>         <chr>                       <dbl>           <dbl>         <int>
    ##  1 AK            Anchorage                  -150.             61.2            24
    ##  2 AL            Birmingham                  -86.4            34.5            16
    ##  3 AR            Little Rock                 -92.3            34.7            16
    ##  4 AZ            Phoenix                    -112.             33.6           104
    ##  5 CA            San Diego                  -117.             32.8           135
    ##  6 CO            Denver                     -105.             39.7            78
    ##  7 CT            Stamford                    -73.5            41.1             7
    ##  8 DC            Washington                  -77.2            38.9            87
    ##  9 DE            Newark                      -88.6            39.3             8
    ## 10 FL            Miami                       -80.8            25.9            54
    ## # ... with 41 more rows, and abbreviated variable name
    ## #   1: TotalStarbucksLocations
    ## # i Use `print(n = ...)` to see more rows
…
